[
  "- - -.json",
  "Аброськина Ольга Викторовна.json",
  "Абыякая Олеся Викторовна.json",
  "Авдонькин Николай Николаевич.json",
  "Авдошина Мария Александровна.json",
  "Авдяков Владимир Алексеевич.json",
  "Акимов Сергей Викторович.json",
  "Александров Вадим Анатольевич.json",
  "Алексеев Александр Борисович.json",
  "Алексеев Сергей Александрович.json",
  "Алексеев Сергей Алексеевич.json",
  "Алексеева Елена Витальевна.json",
  "Алексеева Мария Ивановна.json",
  "Алексеева Надежда Николаевна.json",
  "Алексеева Ольга Михайловна.json",
  "Алексеева Светлана Владимировна.json",
  "Алексеенко Ирина Альбертовна.json",
  "Алимов Александр Леонидович.json",
  "Алимов Василий Николаевич.json",
  "Аль-Нами Башер Али Абдуллах.json",
  "Алёшин Алексей Сергеевич.json",
  "Андреев Роман Александрович.json",
  "Андреева Елена Ивановна.json",
  "Андреева Надежда Борисовна.json",
  "Андреева Татьяна Алексеевна.json",
  "Андрианов Владимир Игоревич.json",
  "Андрианова Екатерина Евгеньевна.json",
  "Андриянова-Качеишвили Лиана Тамазиевна.json",
  "Андропов Алексей Викторович.json",
  "Аникина Ирина Валерьевна.json",
  "Анохин Юрий Владимирович.json",
  "Антипин Борис Маврович.json",
  "Антонов Сергей Николаевич.json",
  "Арестова Екатерина Владимировна.json",
  "Арзуманян Юрий Вазгенович.json",
  "Арсирий Алла Ивановна.json",
  "Астафьев Василий Вячеславович Винтовкина Наталья Евгеньевна Полищук Наталья Валерьевна.json",
  "Астафьев Василий Вячеславович Иваненко Тамара Александровна.json",
  "Астафьев Василий Вячеславович Полищук Наталья Валерьевна.json",
  "Астафьева-Румянцева Ирина Евгеньевна.json",
  "Атаян Ануш Михайловна.json",
  "Афанасьева Алла Ивановна.json",
  "Афанасьева Надежда Ильинична.json",
  "Афиногенова Елена Михайловна.json",
  "Ахметова Юлия Славовна.json",
  "Ахрамеева Ксения Андреевна.json",
  "Бабанов Иван Андреевич.json",
  "Бабин Николай Николаевич.json",
  "Бабков Иван Николаевич.json",
  "Баринова Надежда Алексеевна.json",
  "Барулина Татьяна Алексеевна.json",
  "Басова Яна Андреевна.json",
  "Беккель Людмила Сергеевна.json",
  "Белая Татьяна Иоанновна.json",
  "Белов Михаил Петрович.json",
  "Белов Станислав Михайлович.json",
  "Белова Евгения Николаевна.json",
  "Белова Елизавета Васильевна.json",
  "Белоус Константин Владимирович.json",
  "Беляева Наталия Николаевна.json",
  "Белякова Маргарита Валентиновна.json",
  "Беляцкая Анна Михайловна.json",
  "Березин Александр Юрьевич.json",
  "Березкин Александр Александрович.json",
  "Биккенин Рафаэль Рифгатович.json",
  "Бирих Эрнест Владимирович.json",
  "Бирюков Михаил Александрович.json",
  "Блатова Татьяна Александровна.json",
  "Бобровский Андрей Владимирович.json",
  "Бобровский Вадим Игоревич.json",
  "Богатова Елена Владимировна.json",
  "Бойко Игорь Андреевич.json",
  "Бондаренко Игорь Борисович.json",
  "Борисов Сергей Викторович.json",
  "Борисова Нина Александровна.json",
  "Бородко Александр Владимирович.json",
  "Бородянский Юрий Михайлович.json",
  "Бочаров Евгений Иванович.json",
  "Бояшова Елена Петровна.json",
  "Браницкий Александр Александрович.json",
  "Бритаева Ольга Хаджи-Муратовна.json",
  "Брусин Ефим Александрович.json",
  "Брыдченко Александр Владимирович.json",
  "Булатова Анастасия Борисовна.json",
  "Бурдин Антон Владимирович.json",
  "Буснюк Андрей Олегович.json",
  "Бухарин Владимир Владимирович.json",
  "Бучатский Александр Николаевич.json",
  "Былина Мария Сергеевна.json",
  "Ваганов Александр Валерьевич.json",
  "Васильев Владимир Валентинович.json",
  "Васильев Дмитрий Николаевич.json",
  "Васильев Иван Андреевич.json",
  "Васильева Елена Ивановна.json",
  "Васильева Надежда Николаевна.json",
  "Вахромова Виктория Викторовна.json",
  "Вельмякина Светлана Сергеевна.json",
  "Верединский Сергей Юрьевич.json",
  "Вересов Владимир Дмитриевич.json",
  "Верхова Галина Викторовна.json",
  "Вивчарь Роман Михайлович.json",
  "Викулов Антон Сергеевич.json",
  "Виноградов Виталий Борисович.json",
  "Виноградов Петр Юрьевич.json",
  "Винтовкина Наталья Евгеньевна Полищук Наталья Валерьевна Воробьев Сергей Николаевич.json",
  "Винтовкина Наталья Евгеньевна Полищук Наталья Валерьевна.json",
  "Виткова Лидия Андреевна.json",
  "Владимиров Сергей Александрович.json",
  "Владимиров Сергей Сергеевич.json",
  "Власова Ирина Владимировна.json",
  "Власова Ольга Александровна.json",
  "Волков Артём Николаевич.json",
  "Волкова Марина Михайловна.json",
  "Володина Лариса Владимировна.json",
  "Волошинов Денис Вячеславович.json",
  "Волчков Артем Борисович.json",
  "Волщуков Матвей Юрьевич.json",
  "Волынец Оксана Роландовна.json",
  "Волынкин Павел Александрович.json",
  "Вольфсон Михаил Борисович.json",
  "Воробьев Олег Владимирович.json",
  "Воробьев Сергей Николаевич.json",
  "Воронов Иван Иванович.json",
  "Воронова Мария Васильевна.json",
  "Воронцова Ирина Олеговна.json",
  "Враге Евгения Викторовна Астафьев Василий Вячеславович Полищук Наталья Валерьевна.json",
  "Враге Евгения Викторовна Винтовкина Наталья Евгеньевна Полищук Наталья Валерьевна.json",
  "Враге Евгения Викторовна Иваненко Тамара Александровна.json",
  "Враге Евгения Викторовна Полищук Наталья Валерьевна.json",
  "Выборнова Анастасия Игоревна.json",
  "Вязьмин Алексей Юрьевич.json",
  "Галиева Татьяна Ринатовна.json",
  "Гвоздков Игорь Вячеславович.json",
  "Гельфанд Артем Максимович.json",
  "Герасимов Александр Михайлович.json",
  "Геращенко Людмила Ивановна.json",
  "Герлинг Екатерина Юрьевна.json",
  "Гехт Антон Борисович.json",
  "Гиль Софья Константиновна.json",
  "Глаголев Сергей Федорович.json",
  "Глухов Николай Иванович.json",
  "Глушанков Евгений Иванович.json",
  "Глушко Артем Вячеславович.json",
  "Гойхман Вадим Юрьевич.json",
  "Гольдштейн Александр Борисович.json",
  "Гольдштейн Борис Соломонович.json",
  "Горбачева Любовь Сергеевна.json",
  "Гордийчук Руслан Викторович.json",
  "Горобцов Илья Александрович.json",
  "Горшкова Елена Анатольевна.json",
  "Гребенщикова Александра Андреевна.json",
  "Греков Константин Борисович.json",
  "Гречишников Евгений Владимирович.json",
  "Грибачев Виталий Петрович.json",
  "Григорян Гоар Татевосовна.json",
  "Гриднев Василий Александрович.json",
  "Гришин Илья Владимирович.json",
  "Гришин Сергей Васильевич.json",
  "Громов Александр Юрьевич.json",
  "Громов Владислав Витальевич.json",
  "Громова Надежда Федоровна.json",
  "Грудцын Николай Алексеевич.json",
  "Груздев Дмитрий Анатольевич.json",
  "Губин Александр Николаевич.json",
  "Гулин Сергей Леонидович.json",
  "Гунина Елена Викторовна.json",
  "Гуреев Артем Евгеньевич.json",
  "Гусарова Инна Владимировна.json",
  "Гутшабаш Евгений Шимонович.json",
  "Давыдов Вадим Владимирович.json",
  "Давыдова Екатерина Викторовна.json",
  "Дагаев Александр Владимирович.json",
  "Данилов Виталий Иванович.json",
  "Денисов Александр Владимирович.json",
  "Деткова Вера Михайловна.json",
  "Дмитриева Виктория Викторовна.json",
  "Дмитриева Диана Сергеевна.json",
  "Дмитриева Оксана Михайловна.json",
  "Дмитриева Юлия Сергеевна.json",
  "Долгун Владислав Олегович.json",
  "Долматова Ольга Александровна.json",
  "Дробяскин Андрей Николаевич.json",
  "Дружкова Марина Анатольевна.json",
  "Дудкин Валентин Иванович.json",
  "Дуклау Владимир Владимирович.json",
  "Дунайцев Роман Альбертович.json",
  "Дюбов Андрей Сергеевич.json",
  "Дёшина Наталия Олеговна.json",
  "Евнукова Ирина Павловна.json",
  "Евстигнеев Валерий Александрович.json",
  "Егоров Станислав Геннадьевич.json",
  "Егорова Марина Александровна.json",
  "Елагин Василий Сергеевич.json",
  "Еникеева Екатерина Михайловна.json",
  "Еремина Любовь Феодосьевна.json",
  "Ерофеев Сергей Анатольевич.json",
  "Желтова Елена Петровна.json",
  "Журавель Евгений Павлович.json",
  "Журавлева Татьяна Юрьевна.json",
  "Забелина Анна Павловна.json",
  "Загорельский Владимир Валерьевич.json",
  "Зайнагабдинова Элина Чингизовна.json",
  "Зайцева Зинаида Викторовна.json",
  "Закиров Ильдар Илюсович.json",
  "Замулин Олег Леонидович.json",
  "Зарубин Антон Александрович.json",
  "Захаров Максим Валерьевич.json",
  "Захарычева Елена Игоревна.json",
  "Зелепукина Елена Сергеевна.json",
  "Землякова Ксения Владимировна.json",
  "Зикратов Игорь Алексеевич.json",
  "Зимин Андрей Владимирович.json",
  "Золотов Олег Иванович.json",
  "Золотухина Полина Сергеевна.json",
  "Иваненко Александр Васильевич Иваненко Тамара Александровна.json",
  "Иваненко Александр Васильевич Полищук Наталья Валерьевна.json",
  "Иваненко Александр Васильевич.json",
  "Иваненко Тамара Александровна Винтовкина Наталья Евгеньевна.json",
  "Иваненко Тамара Александровна Воробьев Сергей Николаевич.json",
  "Иваненко Тамара Александровна Кабаев Игорь Евгеньевич.json",
  "Иваненко Тамара Александровна Лутай Сергей Вячеславович.json",
  "Иваненко Тамара Александровна Стародубцев Михаил Павлович.json",
  "Иваненко Тамара Александровна.json",
  "Иванов Александр Юрьевич.json",
  "Иванов Владимир Кузьмович.json",
  "Иванова Виктория Александровна.json",
  "Измозик Владлен Семенович.json",
  "Израилов Константин Евгеньевич.json",
  "Ильина Дарья Валерьевна.json",
  "Ильюхин Руслан Васильевич.json",
  "Иойлева Галина Валентиновна.json",
  "Исаенко Дмитрий Игоревич.json",
  "Исаков Александр Вячеславович.json",
  "Исакова Наталья Николаевна.json",
  "Исупова Екатерина Анатольевна.json",
  "Кабаев Игорь Евгеньевич.json",
  "Кабардов Муаед Мусович.json",
  "Казанцев Алексей Анатольевич.json",
  "Казанцева Анна Геннадьевна.json",
  "Казьмин Олег Юрьевич.json",
  "Калимуллина Ольга Валерьевна.json",
  "Калинина Наталья Васильевна.json",
  "Камартина Наталия Михайловна.json",
  "Капитоненко Виктория Викторовна.json",
  "Карелина Ирина Владимировна.json",
  "Катасонов Александр Игоревич.json",
  "Катасонова Галия Рузитовна.json",
  "Кваша Надежда Владимировна.json",
  "Кирик Дмитрий Игоревич.json",
  "Киричек Руслан Валентинович.json",
  "Киселева Анастасия Владимировна.json",
  "Кисляков Сергей Викторович.json",
  "Климчак Анна Юрьевна.json",
  "Ковцур Максим Михайлович.json",
  "Кожанов Юрий Федорович.json",
  "Козлова Людмила Петровна.json",
  "Козлова Ольга Александровна.json",
  "Козырев Виталий Михайлович.json",
  "Кокорин Михаил Станиславович.json",
  "Колбанева Ольга Владимировна Воробьева Дарья Михайловна.json",
  "Колбанева Ольга Владимировна.json",
  "Колобова Ирина Александровна.json",
  "Колосько Анатолий Григорьевич.json",
  "Комарова Ксения Александровна.json",
  "Кондратьева Ольга Николаевна.json",
  "Кондрашов Юрий Владимирович.json",
  "Копылова Ирина Вячеславовна.json",
  "Корина Маргарита Николаевна.json",
  "Коробов Сергей Александрович.json",
  "Коровин Константин Олегович.json",
  "Королев Виталий Вячеславович.json",
  "Коротин Владимир Евгеньевич.json",
  "Косицына Татьяна Сергеевна.json",
  "Косов Никита Алексеевич.json",
  "Котлярова Анна Андреевна.json",
  "Котов Виктор Иванович.json",
  "Кравец Елена Валентиновна.json",
  "Краева Екатерина Витальевна.json",
  "Краснов Евгений Алексеевич Иваненко Тамара Александровна.json",
  "Краснов Евгений Алексеевич Полищук Наталья Валерьевна.json",
  "Краснов Евгений Алексеевич.json",
  "Красов Андрей Владимирович.json",
  "Кривоносова Наталья Викторовна.json",
  "Кригер Вадим Игоревич.json",
  "Кубалова Анна Рудольфовна.json",
  "Кузенов Сергей Ризабекович.json",
  "Кузнецова Валентина Игоревна.json",
  "Кузьмин Сергей Викторович.json",
  "Кузьмина Анна Владиславовна.json",
  "Кузьмина Дарья Денисовна.json",
  "Кузьмичева Анна Геннадьевна.json",
  "Кукунин Дмитрий Сергеевич.json",
  "Куликов Виктор Владимирович.json",
  "Куликов Сергей Павлович.json",
  "Куликова Марина Николаевна.json",
  "Кулинкович Алексей Викторович.json",
  "Кульназарова Анастасия Витальевна.json",
  "Курдыбайло Инга Павловна.json",
  "Курносов Валерий Игорьевич.json",
  "Кухаренко Елена Александровна.json",
  "Кучерявый Андрей Евгеньевич.json",
  "Кушнир Дмитрий Викторович.json",
  "Лабачевская Елена Александровна.json",
  "Лазовский Александр Валерьевич.json",
  "Ланда Александр Эдуардович.json",
  "Лансере Николай Николаевич.json",
  "Лаппо Елизавета Алексеевна.json",
  "Лашин Юрий Федорович.json",
  "Лебедева Каринэ Виоленовна.json",
  "Левчук Светлана Юрьевна.json",
  "Левшун Дмитрий Сергеевич.json",
  "Лейкин Антон Владиславович.json",
  "Леоненко Ольга Юрьевна.json",
  "Леонюк Антон Сергеевич.json",
  "Ликарь Александр Иванович.json",
  "Ликонцев Алексей Николаевич.json",
  "Линева Евгения Викторовна.json",
  "Линц Галина Вячеславовна.json",
  "Литвинов Владислав Леонидович.json",
  "Ловцюс Владимир Викторович.json",
  "Логвинова Нина Константиновна.json",
  "Логиновская Алёна Николаевна.json",
  "Лукин Константин Игоревич.json",
  "Лукша Иван Иванович.json",
  "Лутай Сергей Вячеславович Полищук Наталья Валерьевна.json",
  "Лутай Сергей Вячеславович.json",
  "Лутовинова Екатерина Юрьевна.json",
  "Лысикова Александра Владимировна.json",
  "Любимов Александр Геннадьевич.json",
  "Макаров Владимир Васильевич.json",
  "Макаров Леонид Михайлович.json",
  "Макогон Василий Петрович.json",
  "Маколкина Мария Александровна.json",
  "Маликов Умар Маннонович.json",
  "Мальцева Ольга Львовна.json",
  "Мальченкова Анна Евгеньевна.json",
  "Манвелова Наталья Евгеньевна.json",
  "Манилов Александр Николаевич.json",
  "Маринская Александра Павловна.json",
  "Марочкина Анастасия Вячеславовна.json",
  "Мартынова Лариса Павловна.json",
  "Мартынова Маргарита Игоревна.json",
  "Марченков Алексей Алексеевич.json",
  "Маршева Наталия Владимировна.json",
  "Маслов Дмитрий Владимирович.json",
  "Матюхин Александр Юрьевич.json",
  "Матюхина Татьяна Владимировна.json",
  "Махонина Ирина Николаевна.json",
  "Медведев Валерий Александрович.json",
  "Медведев Сергей Алексеевич.json",
  "Межевов Павел Александрович.json",
  "Мелешко Елена Ивановна.json",
  "Мешков Александр Владимирович.json",
  "Мешков Валерий Николаевич.json",
  "Милошенко Анна Петровна.json",
  "Милый Дмитрий Владимирович.json",
  "Минеева Варвара Дмитриевна.json",
  "Миняев Андрей Анатольевич.json",
  "Мирзоян Ирина Эдуардовна.json",
  "Михайличенко Николай Валерьевич.json",
  "Мкртычян Павел Зорикович.json",
  "Могильников Федор Михайлович.json",
  "Моисеев Игорь Анатольевич.json",
  "Молчанова Татьяна Вячеславовна.json",
  "Мордовин Владимир Николаевич.json",
  "Морозов Александр Алексеевич.json",
  "Морозов Сергей Константинович.json",
  "Мосеев Василий Ильич.json",
  "Мошак Николай Николаевич.json",
  "Музыкантов Алексей Николаевич.json",
  "Мункуева Ольга Борисовна.json",
  "Мусаева Татьяна Вагиф кызы.json",
  "Мутханна Аммар Салех Али -.json",
  "Нагдиева Марият Сейфулаховна.json",
  "Наружный Вячеслав Евгеньевич.json",
  "Недосека Елена Владимировна.json",
  "Неелова Ольга Леонидовна.json",
  "Неровный Артём Викторович.json",
  "Несенчук Виктория Викторовна.json",
  "Нестерова Марина Валерьевна.json",
  "Нешитов Петр Юрьевич.json",
  "Никитин Борис Константинович.json",
  "Никитин Юрий Александрович.json",
  "Никитина Александра Викторовна.json",
  "Никитина Светлана Владленовна.json",
  "Николаева Людмила Александровна.json",
  "Николаева Татьяна Геннадьевна.json",
  "Новак Анатолий Вячеславович.json",
  "Новикова Светлана Рудольфовна.json",
  "Новоженин Александр Васильевич.json",
  "Обудовская Анна Алексеевна.json",
  "Оводова Татьяна Александровна.json",
  "Овчинников Антон Олегович.json",
  "Овчинникова Елена Григорьевна.json",
  "Огурцов Константин Александрович.json",
  "Одоевский Сергей Михайлович.json",
  "Ожерельева Наталия Алексеевна.json",
  "Окунева Дарина Владимировна.json",
  "Олимпиев Алексей Александрович.json",
  "Орлов Сергей Анатольевич.json",
  "Павлов Виктор Матвеевич.json",
  "Павлов Владимир Васильевич.json",
  "Павлов Федор Федорович.json",
  "Павлова Галина Геннадьевна.json",
  "Павлова Елена Васильевна.json",
  "Павлович Артур Александрович.json",
  "Панихидников Сергей Александрович.json",
  "Панкратова Ярослава Борисовна.json",
  "Пантюхин Олег Игоревич.json",
  "Парамонов Александр Иванович.json",
  "Парамонова Марина Ильинична.json",
  "Параничев Андрей Викторович.json",
  "Парицкая Татьяна Ильинична.json",
  "Патрушева Дарья Андреевна.json",
  "Пачин Андрей Владимирович.json",
  "Пащенко Мария Сергеевна.json",
  "Перевозник Юрий Яковлевич.json",
  "Перевозчикова Варвара Алексеевна.json",
  "Передистов Евгений Юрьевич.json",
  "Перелогов Игорь Олегович Иваненко Тамара Александровна.json",
  "Перелогов Игорь Олегович Полищук Наталья Валерьевна.json",
  "Перелогов Игорь Олегович.json",
  "Перелыгин Сергей Васильевич.json",
  "Перфилова Ирина Сергеевна.json",
  "Пестов Игорь Евгеньевич.json",
  "Петренко Ольга Анатольевна Иваненко Тамара Александровна.json",
  "Петренко Ольга Анатольевна Полищук Наталья Валерьевна.json",
  "Петрив Роман Богданович.json",
  "Петрова Екатерина Дантесовна.json",
  "Петрова Ольга Борисовна.json",
  "Пешков Андрей Иванович.json",
  "Пиголицына Елена Николаевна.json",
  "Пиликина Елена Анатольевна.json",
  "Пинковская Светлана Васильевна.json",
  "Писарев Игорь Игоревич.json",
  "Платонова Татьяна Андреевна.json",
  "Плотников Павел Владимирович.json",
  "Поведайко Максим Дмитриевич.json",
  "Подгорная Елена Анатольевна.json",
  "Поддубный Сергей Сергеевич.json",
  "Полищук Наталья Валерьевна Воробьев Сергей Николаевич.json",
  "Полищук Наталья Валерьевна Кабаев Игорь Евгеньевич.json",
  "Полищук Наталья Валерьевна.json",
  "Полякова Елена Валериевна.json",
  "Поляничева Анна Валерьевна.json",
  "Помогалова Альбина Владимировна.json",
  "Понамаренко Екатерина Сергеевна.json",
  "Пономарев Олег Игоревич Иваненко Тамара Александровна.json",
  "Пономарев Олег Игоревич Полищук Наталья Валерьевна.json",
  "Пономарев Олег Игоревич.json",
  "Пономарева Дарья Александровна.json",
  "Попова Наталья Владимировна.json",
  "Потапенко Тимофей Геннадьевич.json",
  "Прасолов Александр Александрович.json",
  "Препод не указан.json",
  "Протасеня Сергей Витальевич.json",
  "Проценко Михаил Сергеевич.json",
  "Пупцев Ринат Игоревич.json",
  "Радюк Максим Анатольевич.json",
  "Разумов Александр Александрович.json",
  "Раковский Олег Владимирович.json",
  "Рафиков Артур Ильдарович.json",
  "Рафиков Дмитрий Геннадьевич.json",
  "Ревидович Николай Андреевич.json",
  "Редругина Наталия Михайловна.json",
  "Резников Б. ПиВТ.json",
  "Резников Богдан Константинович Лукин Константин Игоревич.json",
  "Резников Богдан Константинович.json",
  "Резников Георгий Андреевич.json",
  "Рекина Татьяна Евгеньевна.json",
  "Рогачевская Наталья Николаевна.json",
  "Рогов Сергей Александрович.json",
  "Рогозинский Глеб Гендрихович.json",
  "Рожков Алексей Иванович.json",
  "Романенкова Виктория Алексеевна.json",
  "Рудюк Наталья Викторовна.json",
  "Русанова Наталья Сергеевна.json",
  "Рыбаков Алексей Игоревич.json",
  "Рыжак Валерий Иванович.json",
  "Рыжикова Татьяна Аркадьевна.json",
  "Рябов Геннадий Анатольевич.json",
  "Рябошапка Алла Петровна.json",
  "Рябуха Ольга Владимировна.json",
  "Савельев Игорь Леонидович.json",
  "Савельева Анастасия Андреевна.json",
  "Савищенко Данила Николаевич.json",
  "Савищенко Николай Васильевич.json",
  "Сагдеев Александр Константинович.json",
  "Салль Сергей Альбертович.json",
  "Салтыков Антон Радиевич.json",
  "Самаркин Денис Сергеевич.json",
  "Сапсаева Татьяна Владимировна Винтовкина Наталья Евгеньевна Полищук Наталья Валерьевна.json",
  "Сапсаева Татьяна Владимировна Иваненко Тамара Александровна.json",
  "Сапсаева Татьяна Владимировна Полищук Наталья Валерьевна.json",
  "Саркисян Арсен Роменович.json",
  "Сахаров Дмитрий Владимирович.json",
  "Светличная Екатерина Владимировна.json",
  "Свиньина Ольга Андреевна.json",
  "Седышев Эрнест Юрьевич.json",
  "Сейтумеров Роман Расимович.json",
  "Селиверстов Виктор Леонидович.json",
  "Семенов Георгий Александрович.json",
  "Семенова Светлана Сергеевна Враге Евгения Викторовна Иваненко Тамара Александровна.json",
  "Семенова Светлана Сергеевна Иваненко Александр Васильевич Иваненко Тамара Александровна.json",
  "Семенова Светлана Сергеевна Иваненко Тамара Александровна Воробьев Сергей Николаевич.json",
  "Семенова Светлана Сергеевна Иваненко Тамара Александровна Кабаев Игорь Евгеньевич.json",
  "Семенова Светлана Сергеевна Иваненко Тамара Александровна.json",
  "Семенова Светлана Сергеевна Петренко Ольга Анатольевна Иваненко Тамара Александровна.json",
  "Семенова Светлана Сергеевна Полищук Наталья Валерьевна.json",
  "Семенова Светлана Сергеевна.json",
  "Сергеев Алексей Николаевич.json",
  "Сергеев Валерий Варламович.json",
  "Серебрякова Светлана Георгиевна.json",
  "Сидоренко Евгений Николаевич.json",
  "Сидоркович Дарья Романовна Юмин Павел -.json",
  "Сидоркович Дарья Романовна.json",
  "Симонина Алина Алексеевна.json",
  "Симонина Анна Александровна.json",
  "Симонина Ольга Александровна.json",
  "Симонов Дмитрий Иванович.json",
  "Сиротская Татьяна Николаевна.json",
  "Скалецкая Ирина Евгеньевна.json",
  "Скоринов Максим Юрьевич.json",
  "Скорых Марк Андреевич.json",
  "Сланов Валерий Павлович.json",
  "Слуцкий Михаил Григорьевич.json",
  "Слюсарь Вадим Александрович.json",
  "Смирнов Даниил Николаевич.json",
  "Смородин Геннадий Николаевич.json",
  "Соколова Елена Федоровна.json",
  "Соколова Юлия Михайловна.json",
  "Соловьев Денис Викторович.json",
  "Соловьев Кирилл Анатольевич.json",
  "Соловьева Ольга Михайловна.json",
  "Сопов Дмитрий Александрович.json",
  "Сотенко Сергей Михайлович.json",
  "Сотников Александр Дмитриевич.json",
  "Старкова Татьяна Николаевна.json",
  "Стародубцев Михаил Павлович Полищук Наталья Валерьевна.json",
  "Стародубцев Михаил Павлович.json",
  "Старостин Владимир Сергеевич.json",
  "Стафутина Вера Николаевна.json",
  "Стахеев Иван Геннадиевич.json",
  "Степаненко Александр Александрович.json",
  "Степаненков Григорий Викторович.json",
  "Степанов Андрей Борисович.json",
  "Степутин Антон Николаевич.json",
  "Степченкова Ольга Петровна Иваненко Тамара Александровна.json",
  "Степченкова Ольга Петровна.json",
  "Стрельникова Татьяна Валерьевна.json",
  "Стригина Елена Владимировна.json",
  "Струев Алексей Михайлович.json",
  "Стурман Владимир Ицхакович.json",
  "Сыпулина Татьяна Владимировна.json",
  "Сыроватская Елена Федоровна.json",
  "Тарабанов Илья Федорович.json",
  "Тарасов Владимир Анатольевич.json",
  "Татаренков Дмитрий Александрович.json",
  "Тащиян Григорий Михайлович.json",
  "Телелюшкина Инна Валентиновна.json",
  "Тенеряднова Светлана Павловна.json",
  "Терентьева Екатерина Анатольевна.json",
  "Тимошенко Татьяна Владимировна.json",
  "Тимченко Владимир Иванович.json",
  "Титин Сергей Иванович.json",
  "Титова Ольга Викторовна.json",
  "Тихомиров Дмитрий Александрович.json",
  "Ткачева Елена Васильевна.json",
  "Токарева Ксения Дмитриевна.json",
  "Торозерова Римма Георгиевна.json",
  "Трибун Михаил Маркович.json",
  "Трифанов Максим Алексеевич.json",
  "Ульянов Андрей Викторович.json",
  "Урванцева Наталия Львовна.json",
  "Успенская Светлана Сергеевна.json",
  "Ушаков Игорь Александрович.json",
  "Фадеев Илья Игоревич.json",
  "Фатеева Надежда Андреевна.json",
  "Федоренко Ирина Николаевна.json",
  "Федоров Андрей Сергеевич.json",
  "Федоров Сергей Леонидович.json",
  "Федорова Алина Владимировна.json",
  "Федорова Ольга Михайловна.json",
  "Федорченко Елена Владимировна.json",
  "Федюшин Владимир Борисович.json",
  "Филин Владимир Алексеевич.json",
  "Филиппов Феликс Васильевич.json",
  "Филиппова Валентина Борисовна.json",
  "Фокин Григорий Алексеевич.json",
  "Фомин Владимир Владимирович.json",
  "Фрейман Максим Рудольфович.json",
  "Футахи Абдо Ахмед Хасан.json",
  "Фёдорова Марина Юрьевна.json",
  "Фёдорова Мария Владимировна.json",
  "Хазиев Нургаян Нурутдинович.json",
  "Хазова Дарья Александровна Винтовкина Наталья Евгеньевна Полищук Наталья Валерьевна.json",
  "Хазова Дарья Александровна Иваненко Тамара Александровна.json",
  "Хазова Дарья Александровна Полищук Наталья Валерьевна.json",
  "Хазова Дарья Александровна.json",
  "Хайбрахманова Екатерина Сергеевна.json",
  "Халепа Сергей Леонидович.json",
  "Хамутовская Светлана Сергеевна.json",
  "Харитонов Владимир Христианович.json",
  "Хитрин Сергей Ионович.json",
  "Хитрина Ирина Юрьевна.json",
  "Ходанович Александр Иванович.json",
  "Холкин Владимир Юрьевич.json",
  "Хричков Валентин Александрович.json",
  "Цверианашвили Иван Алексеевич.json",
  "Цветков Александр Юрьевич.json",
  "Циринский Семён Давыдович.json",
  "Цыгоняева Александра Юрьевна.json",
  "Чайка Наталия Анатольевна.json",
  "Чебыкин Василий Александрович.json",
  "Чеголина Ольга Борисовна.json",
  "Чернов Игорь Николаевич.json",
  "Чернов Сергей Александрович.json",
  "Черных Юрий Константинович.json",
  "Чернышов Артём Геннадьевич.json",
  "Чечулин Андрей Алексеевич.json",
  "Шабанов Александр Павлович.json",
  "Шаброва Елена Витальевна.json",
  "Шаго Фёдор Николаевич.json",
  "Шамсиев Бахтияр Газиевич.json",
  "Шариков Павел Иванович.json",
  "Шарихина Юлия Валерьевна.json",
  "Шаталова Валентина Александровна.json",
  "Швидкий Артем Александрович.json",
  "Шемякин Сергей Николаевич.json",
  "Шерстнева Алина Анатольевна.json",
  "Шилова Светлана Викторовна Иваненко Тамара Александровна.json",
  "Шилова Светлана Викторовна Полищук Наталья Валерьевна.json",
  "Шиян Андрей Анатольевич.json",
  "Шиян Павел Анатольевич.json",
  "Штеренберг Игорь Григорьевич.json",
  "Штеренберг Станислав Игоревич.json",
  "Шумаков Павел Петрович.json",
  "Шутман Денис Валерьевич.json",
  "Шушпанов Дмитрий Викторович.json",
  "Шыпота Николай Александрович.json",
  "Щербаков Игорь Борисович.json",
  "Щербатый Павел Евгеньевич.json",
  "Эйдемиллер Константин Юрьевич.json",
  "Эль Сабаяр Шевченко Нидал -.json",
  "Юмин Павел - Волынец Оксана Роландовна.json",
  "Юмин Павел -.json",
  "Юркин Валерий Станиславович.json",
  "Юркин Дмитрий Валерьевич.json",
  "Юрова Валентина Александровна.json",
  "Яковлев Виктор Алексеевич.json",
  "Яковлев Олег Александрович.json",
  "Якубова Наиля Равильевна.json",
  "Янишевская Ирина Валентиновна.json",
  "Яновская Дарья Олеговна.json",
  "Яценко Мария Вадимовна.json"
]